{
  "apiVersion": "apps/v1",
  "kind": "Deployment",
  "metadata": {
    "name": "auth",
    "labels": {
      "app": "ropu",
      "tier": "auth"
    }
  },
  "spec": {
    "replicas": 1,
    "selector": {
      "matchLabels": {
        "app": "ropu",
        "tier": "auth"
      }
    },
    "strategy": {
      "type": "Recreate"
    },
    "template": {
      "metadata": {
        "labels": {
          "app": "ropu",
          "tier": "auth"
        }
      },
      "spec": {
        "containers": [
          {
            "image": "ropu/auth",
            "name": "auth"
          }
        ],
        "initContainers": [
          {
            "image": "mysql:5.7",
            "name": "mysql",
            "command": [
              "sh",
              "-c",
              "until nslookup mysql; do echo waiting for database; sleep 2; done;"
            ],
            "env": [
              {
                "name": "MYSQL_ROOT_PASSWORD",
                "valueFrom": {
                  "secretKeyRef": {
                    "name": "mysql-root-pass",
                    "key": "h7vm33zqvgbYrtZcs3X3pA27"
                  }
                }
              },
              {
                "name": "MYSQL_PASSWORD",
                "valueFrom": {
                  "secretKeyRef": {
                    "name": "mysql-pass",
                    "key": "h7vm33zqvgbYrtZcs3X3pA27"
                  }
                }
              },
              {
                "name": "MYSQL_DATABASE",
                "valueFrom": {
                  "secretKeyRef": {
                    "name": "mysql-database",
                    "key": "auth-db"
                  }
                }
              },
              {
                "name": "MYSQL_USER",
                "valueFrom": {
                  "secretKeyRef": {
                    "name": "mysql-user",
                    "key": "auth"
                  }
                }
              }
            ],
            "ports": [
              {
                "containerPort": 3306,
                "name": "mysql"
              }
            ],
            "volumeMounts": [
              {
                "name": "pv-storage",
                "mountPath": "/usr/share/nginx/html"
              }
            ]
          }
        ],
        "volumes": [
          {
            "name": "pv-storage",
            "persistentVolumeClaim": {
              "claimName": "pv-claim"
            }
          }
        ]
      }
    }
  }
}